{"content":[{"patientId":1,"patientCode":"BN-1001","firstName":"Đoàn Thanh","lastName":"Phong","fullName":"Đoàn Thanh Phong","email":"phong.dt@email.com","phone":"0971111111","dateOfBirth":"1995-03-15","address":"123 Lê Văn Việt, Q9, TPHCM","gender":"MALE","medicalHistory":"Tiền sử viêm lợi, đã điều trị năm 2020","allergies":"Dị ứng Penicillin","emergencyContactName":"Đoàn Văn Nam","emergencyContactPhone":"0901111111","guardianName":null,"guardianPhone":null,"guardianRelationship":null,"guardianCitizenId":null,"isActive":true,"createdAt":"2025-12-10T19:01:17.12779","updatedAt":"2025-12-10T19:01:17.12779","hasAccount":true,"accountId":12,"accountStatus":"ACTIVE","isEmailVerified":true,"isBookingBlocked":false,"bookingBlockReason":null,"bookingBlockNotes":null,"blockedBy":null,"blockedAt":null,"consecutiveNoShows":0},{"patientId":2,"patientCode":"BN-1002","firstName":"Phạm Văn","lastName":"Phong","fullName":"Phạm Văn Phong","email":"phong.pv@email.com","phone":"0972222222","dateOfBirth":"1990-07-20","address":"456 Võ Văn Ngân, Thủ Đức, TPHCM","gender":"MALE","medicalHistory":"Không có tiền sử bệnh lý","allergies":"Không có dị ứng","emergencyContactName":"Phạm Thị Lan","emergencyContactPhone":"0902222222","guardianName":null,"guardianPhone":null,"guardianRelationship":null,"guardianCitizenId":null,"isActive":true,"createdAt":"2025-12-10T19:01:17.12779","updatedAt":"2025-12-10T19:01:17.12779","hasAccount":true,"accountId":13,"accountStatus":"ACTIVE","isEmailVerified":true,"isBookingBlocked":false,"bookingBlockReason":null,"bookingBlockNotes":null,"blockedBy":null,"blockedAt":null,"consecutiveNoShows":0}],"pageable":{"pageNumber":0,"pageSize":2,"sort":{"empty":false,"sorted":true,"unsorted":false},"offset":0,"paged":true,"unpaged":false},"last":false,"totalElements":10,"totalPages":5,"first":true,"size":2,"number":0,"sort":{"empty":false,"sorted":true,"unsorted":false},"numberOfElements":2,"empty":false}
